2017-04-13 17:49:12	Update #8: Completed!
2017-04-13 17:49:12	Update #9: Initializing update
2017-04-13 17:49:13	Update #9: Added: Pages > Recent
2017-04-13 17:49:13	Update #9: Completed!
2017-04-13 17:49:44	Update #10: Initializing update
2017-04-13 17:49:44	Update #10: Installed ProcessLogger and added: Setup > Logs
2017-04-13 17:49:44	Update #10: Installed InputfieldIcon
2017-04-13 17:49:44	Update #10: Completed!
2017-04-13 17:50:09	Update #11: Initializing update
2017-04-13 17:50:09	Update #11: Completed!
2017-04-13 17:50:09	Update #12: Initializing update
2017-04-13 17:50:09	Update #12: Added 'published' column to pages table
2017-04-13 17:50:09	Update #12: Populated values to 'published' for 48 pages
2017-04-13 17:50:09	Update #12: Completed!
2017-04-13 17:50:09	Update #13: Initializing update
2017-04-13 17:50:09	Update #13: Completed!
2017-04-13 17:50:09	Update #14: Initializing update
2017-04-13 17:50:10	Update #14: Completed!
2017-04-13 17:50:10	Update #15: Initializing update
2017-04-13 17:50:10	Update #15: Completed!
